CEDULA;PERIODO;VARIABLE;SUB_VARIABLE;PRODUCTO;OBJETIVO ;RESULTADO;CUMPLIMIENTO
comercial;10;1;0;0;50;0;0
comercial;10;2;0;0;20;0;0
comercial;10;3;0;0;6;7;0
comercial;10;4;0;0;100000;100001;0
comercial;10;5;0;0;100;15;0
comercial;10;6;61;0;0;0;51
comercial;10;6;62;621;0;0;73
comercial;10;6;62;622;0;0;82
