<?xml version="1.0" standalone="no"?>
<!DOCTYPE svg PUBLIC "-//W3C//DTD SVG 1.1//EN" "http://www.w3.org/Graphics/SVG/1.1/DTD/svg11.dtd" >
<svg xmlns="http://www.w3.org/2000/svg">
<metadata>Generated by IcoMoon</metadata>
<defs>
<font id="icomoon" horiz-adv-x="1024">
<font-face units-per-em="1024" ascent="960" descent="-64" />
<missing-glyph horiz-adv-x="1024" />
<glyph unicode="&#x20;" horiz-adv-x="512" d="" />
<glyph unicode="&#xe900;" horiz-adv-x="3977" d="M143.288 719.48v-613.069h-120.26v613.069h120.26z" />
<glyph unicode="&#xe901;" horiz-adv-x="3977" d="M410.419 563.91v-457.499h-121.283v613.069h121.283c20.47 22.517 62.945 33.775 127.424 33.775 77.273 0 139.706-23.54 187.298-71.132s71.644-105.419 72.156-173.993v-401.719h-120.772v396.090c0 41.451-13.817 76.25-42.475 103.372-28.146 27.634-60.386 41.451-96.72 41.451-35.822 0-67.038-12.794-94.673-38.893-14.841-15.352-26.099-30.193-32.24-44.522z" />
<glyph unicode="&#xe902;" horiz-adv-x="3977" d="M1433.395 302.409l115.142-42.475c-22.517-30.705-40.94-53.221-54.245-67.038-68.062-68.574-150.965-102.349-248.708-102.349-97.231 0-179.11 33.775-246.661 100.814-67.038 67.038-100.814 146.871-100.814 238.985s33.775 171.434 100.814 238.473c67.55 67.038 149.429 100.302 246.661 100.302 97.743 0 180.134-33.263 246.149-99.278 15.352-15.352 34.287-38.381 56.804-69.085l-115.142-42.987c-15.864 19.958-27.122 33.263-32.752 39.404-43.498 42.987-95.184 64.48-155.058 64.48s-112.072-22.005-156.082-66.527c-44.010-44.522-66.527-99.79-66.527-165.293s22.005-120.26 66.527-164.782c44.522-44.522 96.208-66.527 156.082-66.527s112.584 22.517 157.617 67.55c4.094 4.606 14.329 16.376 30.193 36.334z" />
<glyph unicode="&#xe903;" horiz-adv-x="3977" d="M1604.83 714.363h56.804v-86.485c10.235 14.329 22.005 27.634 35.31 40.94 67.038 66.527 147.894 99.79 242.567 99.79s175.528-33.263 242.567-100.302c67.038-66.527 100.302-147.894 100.302-243.078 0-94.161-33.263-175.016-100.302-242.567-67.038-66.527-147.894-100.302-242.567-100.302s-175.528 33.775-242.567 101.325c-13.305 13.305-25.075 27.122-35.31 40.94v-284.53h-56.804v774.269zM1661.633 484.59v-117.189c10.235-53.733 35.822-100.814 77.273-141.753 55.78-55.78 122.819-83.414 201.115-83.414s145.335 27.634 200.604 82.903c55.268 55.268 82.903 122.307 82.903 200.604s-27.634 145.335-82.903 201.115c-55.268 55.78-122.307 83.414-200.604 83.414s-145.335-27.634-201.115-83.414c-41.451-40.94-67.038-88.532-77.273-142.265z" />
<glyph unicode="&#xe904;" horiz-adv-x="3977" d="M3056.136 100.27h-56.804v125.377c-10.747-14.841-22.517-28.658-35.31-41.963-67.038-67.55-147.894-101.325-243.59-101.325-94.161 0-175.016 33.775-242.567 100.814-67.038 67.038-100.814 147.894-100.814 242.567 0 95.184 33.775 176.552 100.814 243.59s147.894 100.302 242.567 100.302c95.184 0 176.552-33.263 243.59-100.302 12.794-13.305 24.564-27.122 35.31-41.963v86.997h56.804v-614.093zM2999.332 370.471v111.048c-10.235 55.268-36.334 103.372-77.785 144.824-55.78 55.78-122.819 83.414-201.115 83.414s-145.335-27.634-200.604-83.414c-55.268-55.78-82.903-122.819-82.903-201.115s27.634-144.824 82.903-200.092c55.268-55.268 122.307-82.903 200.604-82.903s145.335 27.634 201.115 83.414c41.451 41.963 67.55 90.067 77.785 144.824z" />
<glyph unicode="&#xe905;" horiz-adv-x="3977" d="M3348.342 429.833c-47.592 26.099-80.856 48.104-99.278 66.527-28.658 28.658-42.987 63.456-42.987 103.884s14.329 75.226 42.987 104.396c28.658 29.169 63.456 43.498 103.884 43.498s74.203-13.305 101.325-40.428c26.099-26.099 38.893-55.78 38.893-89.043v-2.559l-48.616-19.958c-4.094 31.728-14.329 55.268-29.681 71.644-15.352 15.864-35.822 24.052-61.409 24.052-25.075 0-46.569-8.7-64.48-27.122-17.911-17.911-27.122-39.404-27.122-64.48s9.211-46.569 27.122-64.48c10.235-10.747 32.24-27.122 66.015-48.104 53.221-28.658 91.090-54.757 114.119-77.273 35.31-35.822 53.221-78.297 53.221-127.936 0-51.174-17.911-94.161-53.221-129.983s-78.297-53.221-128.96-53.221c-50.663 0-93.137 17.911-128.96 53.221-35.31 35.822-53.221 74.715-53.221 117.189l55.78 14.329c0-36.334 12.282-67.038 37.357-91.602 24.564-24.564 54.245-37.357 88.532-37.357s63.968 12.282 89.043 37.357c25.075 24.564 37.357 54.757 37.357 90.067 0 34.287-12.282 63.968-37.357 88.532-12.794 13.305-39.916 33.263-80.344 58.851z" />
<glyph unicode="&#xe906;" horiz-adv-x="3977" d="M3803.794 429.833c-47.592 26.099-80.856 48.104-99.278 66.527-28.658 28.658-42.987 63.456-42.987 103.884s14.329 75.226 42.987 104.396c28.658 29.169 63.456 43.498 103.884 43.498s74.203-13.305 101.325-40.428c26.099-26.099 38.893-55.78 38.893-89.043v-2.559l-48.616-19.958c-4.094 31.728-14.329 55.268-29.681 71.644-15.352 15.864-36.334 24.052-61.409 24.052s-46.569-8.7-64.48-27.122c-17.911-17.911-27.122-39.404-27.122-64.48s9.211-46.569 27.122-64.48c10.235-10.747 32.24-27.122 66.015-48.104 53.221-28.658 91.090-54.757 114.119-77.273 35.31-35.822 53.221-78.297 53.221-127.936 0-51.174-17.911-94.161-53.221-129.983s-78.297-53.221-128.96-53.221c-50.663 0-93.649 17.911-128.96 53.221-35.31 35.822-53.221 74.715-53.221 117.189l55.78 14.329c0-36.334 12.282-67.038 37.357-91.602 24.564-24.564 54.245-37.357 89.043-37.357 34.287 0 63.968 12.282 89.043 37.357 25.075 24.564 37.357 54.757 37.357 90.067 0 34.287-12.282 63.968-37.357 88.532-13.305 13.305-39.916 33.263-80.856 58.851z" />
<glyph unicode="&#xe907;" horiz-adv-x="3977" d="M82.903 793.683c-46.057 0-82.903 37.357-82.903 82.903 0 46.057 37.357 82.903 82.903 82.903 46.057 0 82.903-37.357 82.903-82.903 0.512-45.545-36.846-82.903-82.903-82.903z" />
</font></defs></svg>