4615873,7,1,81,0,0,"=> ya existe datos para el usuario 4615873 en el periodo 7 para la variable 1"
10298776,7,1,81,0,0,"=> ya existe datos para el usuario 10298776 en el periodo 7 para la variable 1"
11203895,7,1,81,0,0,"=> ya existe datos para el usuario 11203895 en el periodo 7 para la variable 1"
24713041,7,1,61,0,0,"=> ya existe datos para el usuario 24713041 en el periodo 7 para la variable 1"
29123247,7,1,81,0,0,"=> ya existe datos para el usuario 29123247 en el periodo 7 para la variable 1"
31173846,7,1,61,0,0,"=> ya existe datos para el usuario 31173846 en el periodo 7 para la variable 1"
36066439,7,1,81,0,0,"=> ya existe datos para el usuario 36066439 en el periodo 7 para la variable 1"
39564319,7,1,61,0,0,"=> ya existe datos para el usuario 39564319 en el periodo 7 para la variable 1"
41939281,7,1,81,0,0,"=> ya existe datos para el usuario 41939281 en el periodo 7 para la variable 1"
42116195,7,1,61,0,0,"=> ya existe datos para el usuario 42116195 en el periodo 7 para la variable 1"
43269721,7,1,81,0,0,"=> ya existe datos para el usuario 43269721 en el periodo 7 para la variable 1"
43274889,7,1,81,0,0,"=> ya existe datos para el usuario 43274889 en el periodo 7 para la variable 1"
43613899,7,1,61,0,0,"=> ya existe datos para el usuario 43613899 en el periodo 7 para la variable 1"
43833012,7,1,81,0,0,"=> ya existe datos para el usuario 43833012 en el periodo 7 para la variable 1"
45451376,7,1,81,0,0,"=> ya existe datos para el usuario 45451376 en el periodo 7 para la variable 1"
45522074,7,1,81,0,0,"=> ya existe datos para el usuario 45522074 en el periodo 7 para la variable 1"
51735996,7,1,61,0,0,"=> ya existe datos para el usuario 51735996 en el periodo 7 para la variable 1"
52021389,7,1,61,0,0,"=> ya existe datos para el usuario 52021389 en el periodo 7 para la variable 1"
52090193,7,1,61,0,0,"=> ya existe datos para el usuario 52090193 en el periodo 7 para la variable 1"
52113102,7,1,61,0,0,"=> ya existe datos para el usuario 52113102 en el periodo 7 para la variable 1"
52121922,7,1,81,0,0,"=> ya existe datos para el usuario 52121922 en el periodo 7 para la variable 1"
52451243,7,1,81,0,0,"=> ya existe datos para el usuario 52451243 en el periodo 7 para la variable 1"
52690935,7,1,81,0,0,"=> ya existe datos para el usuario 52690935 en el periodo 7 para la variable 1"
52794600,7,1,81,0,0,"=> ya existe datos para el usuario 52794600 en el periodo 7 para la variable 1"
52800168,7,1,81,0,0,"=> ya existe datos para el usuario 52800168 en el periodo 7 para la variable 1"
55308533,7,1,81,0,0,"=> ya existe datos para el usuario 55308533 en el periodo 7 para la variable 1"
56088989,7,1,81,0,0,"=> ya existe datos para el usuario 56088989 en el periodo 7 para la variable 1"
60324320,7,1,81,0,0,"=> ya existe datos para el usuario 60324320 en el periodo 7 para la variable 1"
63483497,7,1,81,0,0,"=> ya existe datos para el usuario 63483497 en el periodo 7 para la variable 1"
63531231,7,1,61,0,0,"=> ya existe datos para el usuario 63531231 en el periodo 7 para la variable 1"
65753056,7,1,81,0,0,"=> ya existe datos para el usuario 65753056 en el periodo 7 para la variable 1"
66848086,7,1,81,0,0,"=> ya existe datos para el usuario 66848086 en el periodo 7 para la variable 1"
66879702,7,1,81,0,0,"=> ya existe datos para el usuario 66879702 en el periodo 7 para la variable 1"
66926721,7,1,61,0,0,"=> ya existe datos para el usuario 66926721 en el periodo 7 para la variable 1"
71762058,7,1,81,0,0,"=> ya existe datos para el usuario 71762058 en el periodo 7 para la variable 1"
72185504,7,1,61,0,0,"=> ya existe datos para el usuario 72185504 en el periodo 7 para la variable 1"
78753455,7,1,61,0,0,"=> ya existe datos para el usuario 78753455 en el periodo 7 para la variable 1"
79783126,7,1,81,0,0,"=> ya existe datos para el usuario 79783126 en el periodo 7 para la variable 1"
79804080,7,1,61,0,0,"=> ya existe datos para el usuario 79804080 en el periodo 7 para la variable 1"
80034193,7,1,81,0,0,"=> ya existe datos para el usuario 80034193 en el periodo 7 para la variable 1"
91299141,7,1,81,0,0,"=> ya existe datos para el usuario 91299141 en el periodo 7 para la variable 1"
93414450,7,1,61,0,0,"=> ya existe datos para el usuario 93414450 en el periodo 7 para la variable 1"
94417153,7,1,81,0,0,"=> ya existe datos para el usuario 94417153 en el periodo 7 para la variable 1"
1073233615,7,1,81,0,0,"=> ya existe datos para el usuario 1073233615 en el periodo 7 para la variable 1"
1088248987,7,1,81,0,0,"=> ya existe datos para el usuario 1088248987 en el periodo 7 para la variable 1"
1090414706,7,1,81,0,0,"=> ya existe datos para el usuario 1090414706 en el periodo 7 para la variable 1"
1098673498,7,1,81,0,0,"=> ya existe datos para el usuario 1098673498 en el periodo 7 para la variable 1"
1128264407,7,1,81,0,0,"=> ya existe datos para el usuario 1128264407 en el periodo 7 para la variable 1"
1128385678,7,1,81,0,0,"=> ya existe datos para el usuario 1128385678 en el periodo 7 para la variable 1"
1129578992,7,1,81,0,0,"=> ya existe datos para el usuario 1129578992 en el periodo 7 para la variable 1"
4615873,7,2,102,0,0,"=> ya existe datos para el usuario 4615873 en el periodo 7 para la variable 2"
10298776,7,2,110,0,0,"=> ya existe datos para el usuario 10298776 en el periodo 7 para la variable 2"
11203895,7,2,48,0,0,"=> ya existe datos para el usuario 11203895 en el periodo 7 para la variable 2"
24713041,7,2,88,0,0,"=> ya existe datos para el usuario 24713041 en el periodo 7 para la variable 2"
29123247,7,2,207,0,0,"=> ya existe datos para el usuario 29123247 en el periodo 7 para la variable 2"
31173846,7,2,92,0,0,"=> ya existe datos para el usuario 31173846 en el periodo 7 para la variable 2"
36066439,7,2,19,0,0,"=> ya existe datos para el usuario 36066439 en el periodo 7 para la variable 2"
39564319,7,2,65,0,0,"=> ya existe datos para el usuario 39564319 en el periodo 7 para la variable 2"
41939281,7,2,157,0,0,"=> ya existe datos para el usuario 41939281 en el periodo 7 para la variable 2"
42116195,7,2,65,0,0,"=> ya existe datos para el usuario 42116195 en el periodo 7 para la variable 2"
43269721,7,2,51,0,0,"=> ya existe datos para el usuario 43269721 en el periodo 7 para la variable 2"
43274889,7,2,73,0,0,"=> ya existe datos para el usuario 43274889 en el periodo 7 para la variable 2"
43613899,7,2,85,0,0,"=> ya existe datos para el usuario 43613899 en el periodo 7 para la variable 2"
43833012,7,2,137,0,0,"=> ya existe datos para el usuario 43833012 en el periodo 7 para la variable 2"
45451376,7,2,11,0,0,"=> ya existe datos para el usuario 45451376 en el periodo 7 para la variable 2"
45522074,7,2,116,0,0,"=> ya existe datos para el usuario 45522074 en el periodo 7 para la variable 2"
51735996,7,2,62,0,0,"=> ya existe datos para el usuario 51735996 en el periodo 7 para la variable 2"
52021389,7,2,63,0,0,"=> ya existe datos para el usuario 52021389 en el periodo 7 para la variable 2"
52090193,7,2,56,0,0,"=> ya existe datos para el usuario 52090193 en el periodo 7 para la variable 2"
52113102,7,2,82,0,0,"=> ya existe datos para el usuario 52113102 en el periodo 7 para la variable 2"
52121922,7,2,175,0,0,"=> ya existe datos para el usuario 52121922 en el periodo 7 para la variable 2"
52451243,7,2,107,0,0,"=> ya existe datos para el usuario 52451243 en el periodo 7 para la variable 2"
52690935,7,2,144,0,0,"=> ya existe datos para el usuario 52690935 en el periodo 7 para la variable 2"
52794600,7,2,159,0,0,"=> ya existe datos para el usuario 52794600 en el periodo 7 para la variable 2"
52800168,7,2,165,0,0,"=> ya existe datos para el usuario 52800168 en el periodo 7 para la variable 2"
55308533,7,2,177,0,0,"=> ya existe datos para el usuario 55308533 en el periodo 7 para la variable 2"
56088989,7,2,85,0,0,"=> ya existe datos para el usuario 56088989 en el periodo 7 para la variable 2"
60324320,7,2,453,0,0,"=> ya existe datos para el usuario 60324320 en el periodo 7 para la variable 2"
63483497,7,2,71,0,0,"=> ya existe datos para el usuario 63483497 en el periodo 7 para la variable 2"
63531231,7,2,78,0,0,"=> ya existe datos para el usuario 63531231 en el periodo 7 para la variable 2"
65753056,7,2,64,0,0,"=> ya existe datos para el usuario 65753056 en el periodo 7 para la variable 2"
66848086,7,2,173,0,0,"=> ya existe datos para el usuario 66848086 en el periodo 7 para la variable 2"
66879702,7,2,142,0,0,"=> ya existe datos para el usuario 66879702 en el periodo 7 para la variable 2"
66926721,7,2,73,0,0,"=> ya existe datos para el usuario 66926721 en el periodo 7 para la variable 2"
71762058,7,2,48,0,0,"=> ya existe datos para el usuario 71762058 en el periodo 7 para la variable 2"
72185504,7,2,66,0,0,"=> ya existe datos para el usuario 72185504 en el periodo 7 para la variable 2"
78753455,7,2,103,0,0,"=> ya existe datos para el usuario 78753455 en el periodo 7 para la variable 2"
79783126,7,2,142,0,0,"=> ya existe datos para el usuario 79783126 en el periodo 7 para la variable 2"
79804080,7,2,61,0,0,"=> ya existe datos para el usuario 79804080 en el periodo 7 para la variable 2"
80034193,7,2,317,0,0,"=> ya existe datos para el usuario 80034193 en el periodo 7 para la variable 2"
91299141,7,2,94,0,0,"=> ya existe datos para el usuario 91299141 en el periodo 7 para la variable 2"
93414450,7,2,79,0,0,"=> ya existe datos para el usuario 93414450 en el periodo 7 para la variable 2"
94417153,7,2,219,0,0,"=> ya existe datos para el usuario 94417153 en el periodo 7 para la variable 2"
1073233615,7,2,427,0,0,"=> ya existe datos para el usuario 1073233615 en el periodo 7 para la variable 2"
1088248987,7,2,132,0,0,"=> ya existe datos para el usuario 1088248987 en el periodo 7 para la variable 2"
1090414706,7,2,157,0,0,"=> ya existe datos para el usuario 1090414706 en el periodo 7 para la variable 2"
1098673498,7,2,70,0,0,"=> ya existe datos para el usuario 1098673498 en el periodo 7 para la variable 2"
1128264407,7,2,136,0,0,"=> ya existe datos para el usuario 1128264407 en el periodo 7 para la variable 2"
1128385678,7,2,220,0,0,"=> ya existe datos para el usuario 1128385678 en el periodo 7 para la variable 2"
1129578992,7,2,70,0,0,"=> ya existe datos para el usuario 1129578992 en el periodo 7 para la variable 2"
43833012,7,3,1,0,0,"=> ya existe datos para el usuario 43833012 en el periodo 7 para la variable 3"
43274889,7,3,1,0,0,"=> ya existe datos para el usuario 43274889 en el periodo 7 para la variable 3"
43613899,7,3,1,0,0,"=> ya existe datos para el usuario 43613899 en el periodo 7 para la variable 3"
43269721,7,3,1,0,0,"=> ya existe datos para el usuario 43269721 en el periodo 7 para la variable 3"
93414450,7,3,1,0,0,"=> ya existe datos para el usuario 93414450 en el periodo 7 para la variable 3"
42116195,7,3,1,0,0,"=> ya existe datos para el usuario 42116195 en el periodo 7 para la variable 3"
1128264407,7,3,1,0,0,"=> ya existe datos para el usuario 1128264407 en el periodo 7 para la variable 3"
1128385678,7,3,1,1,100,"=> ya existe datos para el usuario 1128385678 en el periodo 7 para la variable 3"
71762058,7,3,1,0,0,"=> ya existe datos para el usuario 71762058 en el periodo 7 para la variable 3"
1088248987,7,3,1,0,0,"=> ya existe datos para el usuario 1088248987 en el periodo 7 para la variable 3"
39564319,7,3,1,0,0,"=> ya existe datos para el usuario 39564319 en el periodo 7 para la variable 3"
52113102,7,3,1,0,0,"=> ya existe datos para el usuario 52113102 en el periodo 7 para la variable 3"
79804080,7,3,1,0,0,"=> ya existe datos para el usuario 79804080 en el periodo 7 para la variable 3"
79783126,7,3,1,0,0,"=> ya existe datos para el usuario 79783126 en el periodo 7 para la variable 3"
52800168,7,3,1,0,0,"=> ya existe datos para el usuario 52800168 en el periodo 7 para la variable 3"
52794600,7,3,1,0,0,"=> ya existe datos para el usuario 52794600 en el periodo 7 para la variable 3"
52121922,7,3,1,0,0,"=> ya existe datos para el usuario 52121922 en el periodo 7 para la variable 3"
1013585602,7,3,1,1,100,"=> ya existe datos para el usuario 1013585602 en el periodo 7 para la variable 3"
80034193,7,3,1,1,100,"=> ya existe datos para el usuario 80034193 en el periodo 7 para la variable 3"
1073233615,7,3,1,1,100,"=> ya existe datos para el usuario 1073233615 en el periodo 7 para la variable 3"
24713041,7,3,1,0,0,"=> ya existe datos para el usuario 24713041 en el periodo 7 para la variable 3"
51735996,7,3,1,0,0,"=> ya existe datos para el usuario 51735996 en el periodo 7 para la variable 3"
52021389,7,3,1,0,0,"=> ya existe datos para el usuario 52021389 en el periodo 7 para la variable 3"
52090193,7,3,1,0,0,"=> ya existe datos para el usuario 52090193 en el periodo 7 para la variable 3"
52690935,7,3,1,0,0,"=> ya existe datos para el usuario 52690935 en el periodo 7 para la variable 3"
52451243,7,3,1,0,0,"=> ya existe datos para el usuario 52451243 en el periodo 7 para la variable 3"
65753056,7,3,1,0,0,"=> ya existe datos para el usuario 65753056 en el periodo 7 para la variable 3"
11203895,7,3,1,0,0,"=> ya existe datos para el usuario 11203895 en el periodo 7 para la variable 3"
41939281,7,3,1,0,0,"=> ya existe datos para el usuario 41939281 en el periodo 7 para la variable 3"
36066439,7,3,1,0,0,"=> ya existe datos para el usuario 36066439 en el periodo 7 para la variable 3"
45451376,7,3,1,0,0,"=> ya existe datos para el usuario 45451376 en el periodo 7 para la variable 3"
72185504,7,3,1,0,0,"=> ya existe datos para el usuario 72185504 en el periodo 7 para la variable 3"
78753455,7,3,1,0,0,"=> ya existe datos para el usuario 78753455 en el periodo 7 para la variable 3"
45522074,7,3,1,0,0,"=> ya existe datos para el usuario 45522074 en el periodo 7 para la variable 3"
55308533,7,3,1,1,100,"=> ya existe datos para el usuario 55308533 en el periodo 7 para la variable 3"
1129578992,7,3,1,0,0,"=> ya existe datos para el usuario 1129578992 en el periodo 7 para la variable 3"
56088989,7,3,1,0,0,"=> ya existe datos para el usuario 56088989 en el periodo 7 para la variable 3"
4615873,7,3,1,0,0,"=> ya existe datos para el usuario 4615873 en el periodo 7 para la variable 3"
10298776,7,3,1,0,0,"=> ya existe datos para el usuario 10298776 en el periodo 7 para la variable 3"
29123247,7,3,1,1,100,"=> ya existe datos para el usuario 29123247 en el periodo 7 para la variable 3"
66848086,7,3,1,0,0,"=> ya existe datos para el usuario 66848086 en el periodo 7 para la variable 3"
94417153,7,3,1,1,100,"=> ya existe datos para el usuario 94417153 en el periodo 7 para la variable 3"
31173846,7,3,1,0,0,"=> ya existe datos para el usuario 31173846 en el periodo 7 para la variable 3"
66879702,7,3,1,0,0,"=> ya existe datos para el usuario 66879702 en el periodo 7 para la variable 3"
66926721,7,3,1,0,0,"=> ya existe datos para el usuario 66926721 en el periodo 7 para la variable 3"
91299141,7,3,1,0,0,"=> ya existe datos para el usuario 91299141 en el periodo 7 para la variable 3"
1098673498,7,3,1,0,0,"=> ya existe datos para el usuario 1098673498 en el periodo 7 para la variable 3"
63483497,7,3,1,0,0,"=> ya existe datos para el usuario 63483497 en el periodo 7 para la variable 3"
63531231,7,3,1,0,0,"=> ya existe datos para el usuario 63531231 en el periodo 7 para la variable 3"
1090414706,7,3,1,0,0,"=> ya existe datos para el usuario 1090414706 en el periodo 7 para la variable 3"
43833012,7,4,1,0,0,"=> ya existe datos para el usuario 43833012 en el periodo 7 para la variable 4"
43274889,7,4,1,1,100,"=> ya existe datos para el usuario 43274889 en el periodo 7 para la variable 4"
43613899,7,4,1,0,0,"=> ya existe datos para el usuario 43613899 en el periodo 7 para la variable 4"
43269721,7,4,1,1,100,"=> ya existe datos para el usuario 43269721 en el periodo 7 para la variable 4"
93414450,7,4,1,0,0,"=> ya existe datos para el usuario 93414450 en el periodo 7 para la variable 4"
42116195,7,4,1,0,0,"=> ya existe datos para el usuario 42116195 en el periodo 7 para la variable 4"
1128264407,7,4,1,0,0,"=> ya existe datos para el usuario 1128264407 en el periodo 7 para la variable 4"
1128385678,7,4,1,0,0,"=> ya existe datos para el usuario 1128385678 en el periodo 7 para la variable 4"
71762058,7,4,1,0,0,"=> ya existe datos para el usuario 71762058 en el periodo 7 para la variable 4"
1088248987,7,4,1,0,0,"=> ya existe datos para el usuario 1088248987 en el periodo 7 para la variable 4"
39564319,7,4,1,1,100,"=> ya existe datos para el usuario 39564319 en el periodo 7 para la variable 4"
52113102,7,4,1,1,100,"=> ya existe datos para el usuario 52113102 en el periodo 7 para la variable 4"
79804080,7,4,1,0,0,"=> ya existe datos para el usuario 79804080 en el periodo 7 para la variable 4"
79783126,7,4,1,1,100,"=> ya existe datos para el usuario 79783126 en el periodo 7 para la variable 4"
52800168,7,4,1,0,0,"=> ya existe datos para el usuario 52800168 en el periodo 7 para la variable 4"
52794600,7,4,1,0,0,"=> ya existe datos para el usuario 52794600 en el periodo 7 para la variable 4"
52121922,7,4,1,0,0,"=> ya existe datos para el usuario 52121922 en el periodo 7 para la variable 4"
1013585602,7,4,1,0,0,"=> ya existe datos para el usuario 1013585602 en el periodo 7 para la variable 4"
80034193,7,4,1,1,100,"=> ya existe datos para el usuario 80034193 en el periodo 7 para la variable 4"
1073233615,7,4,1,1,100,"=> ya existe datos para el usuario 1073233615 en el periodo 7 para la variable 4"
24713041,7,4,1,0,0,"=> ya existe datos para el usuario 24713041 en el periodo 7 para la variable 4"
51735996,7,4,1,1,100,"=> ya existe datos para el usuario 51735996 en el periodo 7 para la variable 4"
52021389,7,4,1,1,100,"=> ya existe datos para el usuario 52021389 en el periodo 7 para la variable 4"
52090193,7,4,1,0,0,"=> ya existe datos para el usuario 52090193 en el periodo 7 para la variable 4"
52690935,7,4,1,0,0,"=> ya existe datos para el usuario 52690935 en el periodo 7 para la variable 4"
52451243,7,4,1,1,100,"=> ya existe datos para el usuario 52451243 en el periodo 7 para la variable 4"
65753056,7,4,1,0,0,"=> ya existe datos para el usuario 65753056 en el periodo 7 para la variable 4"
11203895,7,4,1,0,0,"=> ya existe datos para el usuario 11203895 en el periodo 7 para la variable 4"
41939281,7,4,1,1,100,"=> ya existe datos para el usuario 41939281 en el periodo 7 para la variable 4"
36066439,7,4,1,1,100,"=> ya existe datos para el usuario 36066439 en el periodo 7 para la variable 4"
45451376,7,4,1,0,0,"=> ya existe datos para el usuario 45451376 en el periodo 7 para la variable 4"
72185504,7,4,1,0,0,"=> ya existe datos para el usuario 72185504 en el periodo 7 para la variable 4"
78753455,7,4,1,0,0,"=> ya existe datos para el usuario 78753455 en el periodo 7 para la variable 4"
45522074,7,4,1,1,100,"=> ya existe datos para el usuario 45522074 en el periodo 7 para la variable 4"
55308533,7,4,1,1,100,"=> ya existe datos para el usuario 55308533 en el periodo 7 para la variable 4"
1129578992,7,4,1,0,0,"=> ya existe datos para el usuario 1129578992 en el periodo 7 para la variable 4"
56088989,7,4,1,0,0,"=> ya existe datos para el usuario 56088989 en el periodo 7 para la variable 4"
4615873,7,4,1,0,0,"=> ya existe datos para el usuario 4615873 en el periodo 7 para la variable 4"
10298776,7,4,1,1,100,"=> ya existe datos para el usuario 10298776 en el periodo 7 para la variable 4"
29123247,7,4,1,1,100,"=> ya existe datos para el usuario 29123247 en el periodo 7 para la variable 4"
66848086,7,4,1,1,100,"=> ya existe datos para el usuario 66848086 en el periodo 7 para la variable 4"
94417153,7,4,1,1,100,"=> ya existe datos para el usuario 94417153 en el periodo 7 para la variable 4"
31173846,7,4,1,1,100,"=> ya existe datos para el usuario 31173846 en el periodo 7 para la variable 4"
66879702,7,4,1,0,0,"=> ya existe datos para el usuario 66879702 en el periodo 7 para la variable 4"
66926721,7,4,1,0,0,"=> ya existe datos para el usuario 66926721 en el periodo 7 para la variable 4"
91299141,7,4,1,0,0,"=> ya existe datos para el usuario 91299141 en el periodo 7 para la variable 4"
1098673498,7,4,1,1,100,"=> ya existe datos para el usuario 1098673498 en el periodo 7 para la variable 4"
63483497,7,4,1,0,0,"=> ya existe datos para el usuario 63483497 en el periodo 7 para la variable 4"
63531231,7,4,1,0,0,"=> ya existe datos para el usuario 63531231 en el periodo 7 para la variable 4"
1090414706,7,4,1,1,100,"=> ya existe datos para el usuario 1090414706 en el periodo 7 para la variable 4"
43833012,7,6,1,0,0,"=> ya existe datos para el usuario 43833012 en el periodo 7 para la variable 6"
43274889,7,6,1,0,0,"=> ya existe datos para el usuario 43274889 en el periodo 7 para la variable 6"
43613899,7,6,1,1,100,"=> ya existe datos para el usuario 43613899 en el periodo 7 para la variable 6"
43269721,7,6,1,1,100,"=> ya existe datos para el usuario 43269721 en el periodo 7 para la variable 6"
93414450,7,6,1,0,0,"=> ya existe datos para el usuario 93414450 en el periodo 7 para la variable 6"
42116195,7,6,1,0,0,"=> ya existe datos para el usuario 42116195 en el periodo 7 para la variable 6"
1128264407,7,6,1,0,0,"=> ya existe datos para el usuario 1128264407 en el periodo 7 para la variable 6"
1128385678,7,6,1,0,0,"=> ya existe datos para el usuario 1128385678 en el periodo 7 para la variable 6"
71762058,7,6,1,0,0,"=> ya existe datos para el usuario 71762058 en el periodo 7 para la variable 6"
1088248987,7,6,1,0,0,"=> ya existe datos para el usuario 1088248987 en el periodo 7 para la variable 6"
39564319,7,6,1,1,100,"=> ya existe datos para el usuario 39564319 en el periodo 7 para la variable 6"
52113102,7,6,1,0,0,"=> ya existe datos para el usuario 52113102 en el periodo 7 para la variable 6"
79804080,7,6,1,0,0,"=> ya existe datos para el usuario 79804080 en el periodo 7 para la variable 6"
79783126,7,6,1,1,100,"=> ya existe datos para el usuario 79783126 en el periodo 7 para la variable 6"
52800168,7,6,1,0,0,"=> ya existe datos para el usuario 52800168 en el periodo 7 para la variable 6"
52794600,7,6,1,1,100,"=> ya existe datos para el usuario 52794600 en el periodo 7 para la variable 6"
52121922,7,6,1,0,0,"=> ya existe datos para el usuario 52121922 en el periodo 7 para la variable 6"
1013585602,7,6,1,0,0,"=> ya existe datos para el usuario 1013585602 en el periodo 7 para la variable 6"
80034193,7,6,1,0,0,"=> ya existe datos para el usuario 80034193 en el periodo 7 para la variable 6"
1073233615,7,6,1,0,0,"=> ya existe datos para el usuario 1073233615 en el periodo 7 para la variable 6"
24713041,7,6,1,0,0,"=> ya existe datos para el usuario 24713041 en el periodo 7 para la variable 6"
51735996,7,6,1,1,100,"=> ya existe datos para el usuario 51735996 en el periodo 7 para la variable 6"
52021389,7,6,1,0,0,"=> ya existe datos para el usuario 52021389 en el periodo 7 para la variable 6"
52090193,7,6,1,1,100,"=> ya existe datos para el usuario 52090193 en el periodo 7 para la variable 6"
52690935,7,6,1,0,0,"=> ya existe datos para el usuario 52690935 en el periodo 7 para la variable 6"
52451243,7,6,1,0,0,"=> ya existe datos para el usuario 52451243 en el periodo 7 para la variable 6"
65753056,7,6,1,1,100,"=> ya existe datos para el usuario 65753056 en el periodo 7 para la variable 6"
11203895,7,6,1,1,100,"=> ya existe datos para el usuario 11203895 en el periodo 7 para la variable 6"
41939281,7,6,1,0,0,"=> ya existe datos para el usuario 41939281 en el periodo 7 para la variable 6"
36066439,7,6,1,1,100,"=> ya existe datos para el usuario 36066439 en el periodo 7 para la variable 6"
45451376,7,6,1,0,0,"=> ya existe datos para el usuario 45451376 en el periodo 7 para la variable 6"
72185504,7,6,1,1,100,"=> ya existe datos para el usuario 72185504 en el periodo 7 para la variable 6"
78753455,7,6,1,1,100,"=> ya existe datos para el usuario 78753455 en el periodo 7 para la variable 6"
45522074,7,6,1,1,100,"=> ya existe datos para el usuario 45522074 en el periodo 7 para la variable 6"
55308533,7,6,1,0,0,"=> ya existe datos para el usuario 55308533 en el periodo 7 para la variable 6"
1129578992,7,6,1,0,0,"=> ya existe datos para el usuario 1129578992 en el periodo 7 para la variable 6"
56088989,7,6,1,0,0,"=> ya existe datos para el usuario 56088989 en el periodo 7 para la variable 6"
4615873,7,6,1,0,0,"=> ya existe datos para el usuario 4615873 en el periodo 7 para la variable 6"
10298776,7,6,1,0,0,"=> ya existe datos para el usuario 10298776 en el periodo 7 para la variable 6"
29123247,7,6,1,0,0,"=> ya existe datos para el usuario 29123247 en el periodo 7 para la variable 6"
66848086,7,6,1,0,0,"=> ya existe datos para el usuario 66848086 en el periodo 7 para la variable 6"
94417153,7,6,1,0,0,"=> ya existe datos para el usuario 94417153 en el periodo 7 para la variable 6"
31173846,7,6,1,0,0,"=> ya existe datos para el usuario 31173846 en el periodo 7 para la variable 6"
66879702,7,6,1,1,100,"=> ya existe datos para el usuario 66879702 en el periodo 7 para la variable 6"
66926721,7,6,1,0,0,"=> ya existe datos para el usuario 66926721 en el periodo 7 para la variable 6"
91299141,7,6,1,0,0,"=> ya existe datos para el usuario 91299141 en el periodo 7 para la variable 6"
1098673498,7,6,1,0,0,"=> ya existe datos para el usuario 1098673498 en el periodo 7 para la variable 6"
63483497,7,6,1,0,0,"=> ya existe datos para el usuario 63483497 en el periodo 7 para la variable 6"
63531231,7,6,1,0,0,"=> ya existe datos para el usuario 63531231 en el periodo 7 para la variable 6"
1090414706,7,6,1,0,0,"=> ya existe datos para el usuario 1090414706 en el periodo 7 para la variable 6"
