CEDULA,PERIODO,VARIABLE,SUB_VARIABLE,PRODUCTO,"OBJETIVO "," RESULTADO ",CUMPLIMIENTO,OBSERVACIONES
43833012,14,3,0,0,3,0,0,"proceso OK"
43274889,14,3,0,0,3,0,0,"proceso OK"
43877326,14,3,0,0,6,0,0,"proceso OK"
43613899,14,3,0,0,3,0,0,"proceso OK"
43269721,14,3,0,0,33,0,0,"proceso OK"
93414450,14,3,0,0,4,0,0,"proceso OK"
42116195,14,3,0,0,2,0,0,"proceso OK"
1128264407,14,3,0,0,156,0,0,"proceso OK"
1128385678,14,3,0,0,157,0,0,"proceso OK"
1037597647,14,3,0,0,6,0,0,"proceso OK"
42137694,14,3,0,0,200,0,0,"proceso OK"
39564319,14,3,0,0,3,0,0,"proceso OK"
51905887,14,3,0,0,5,0,0,"proceso OK"
80233026,14,3,0,0,5,0,0,"proceso OK"
79783126,14,3,0,0,3,0,0,"proceso OK"
52800168,14,3,0,0,3,0,0,"proceso OK"
1018437239,14,3,0,0,8,0,0,"proceso OK"
52121922,14,3,0,0,10,0,0,"proceso OK"
1013585602,14,3,0,0,176,0,0,"proceso OK"
80034193,14,3,0,0,208,0,0,"proceso OK"
80075509,14,3,0,0,355,0,0,"proceso OK"
1073233615,14,3,0,0,260,0,0,"proceso OK"
24713041,14,3,0,0,4,0,0,"proceso OK"
1103106154,14,3,0,0,12,0,0,"proceso OK"
80152348,14,3,0,0,3,0,0,"proceso OK"
51804331,14,3,0,0,8,0,0,"proceso OK"
1030523041,14,3,0,0,8,0,0,"proceso OK"
51735996,14,3,0,0,2,0,0,"proceso OK"
52021389,14,3,0,0,3,0,0,"proceso OK"
52090193,14,3,0,0,4,0,0,"proceso OK"
52690935,14,3,0,0,3,0,0,"proceso OK"
65753056,14,3,0,0,39,0,0,"proceso OK"
11203895,14,3,0,0,78,0,0,"proceso OK"
41939281,14,3,0,0,92,0,0,"proceso OK"
36066439,14,3,0,0,17,0,0,"proceso OK"
45451376,14,3,0,0,5,0,0,"proceso OK"
22461132,14,3,0,0,4,0,0,"proceso OK"
78753455,14,3,0,0,1,0,0,"proceso OK"
45522074,14,3,0,0,4,0,0,"proceso OK"
55308533,14,3,0,0,175,0,0,"proceso OK"
1140839286,14,3,0,0,141,0,0,"proceso OK"
1129578992,14,3,0,0,6,0,0,"proceso OK"
56088989,14,3,0,0,74,0,0,"proceso OK"
4615873,14,3,0,0,2,0,0,"proceso OK"
10298776,14,3,0,0,10,0,0,"proceso OK"
29123247,14,3,0,0,205,0,0,"proceso OK"
66848086,14,3,0,0,168,0,0,"proceso OK"
94417153,14,3,0,0,253,0,0,"proceso OK"
31173846,14,3,0,0,3,0,0,"proceso OK"
66879702,14,3,0,0,2,0,0,"proceso OK"
66926721,14,3,0,0,3,0,0,"proceso OK"
91299141,14,3,0,0,159,0,0,"proceso OK"
1098673498,14,3,0,0,6,0,0,"proceso OK"
63483497,14,3,0,0,3,0,0,"proceso OK"
63531231,14,3,0,0,3,0,0,"proceso OK"
1090414706,14,3,0,0,234,0,0,"proceso OK"
43833012,14,4,0,0,675000000,0,0,"proceso OK"
43274889,14,4,0,0,675000000,0,0,"proceso OK"
43877326,14,4,0,0,240000000,0,0,"proceso OK"
43613899,14,4,0,0,12000000000,0,0,"proceso OK"
43269721,14,4,0,0,1374000000,0,0,"proceso OK"
93414450,14,4,0,0,13500000000,0,0,"proceso OK"
42116195,14,4,0,0,2046000000,0,0,"proceso OK"
1128264407,14,4,0,0,1680000000,0,0,"proceso OK"
1128385678,14,4,0,0,1730000000,0,0,"proceso OK"
1037597647,14,4,0,0,240000000,0,0,"proceso OK"
42137694,14,4,0,0,3070000000,0,0,"proceso OK"
39564319,14,4,0,0,2000000000,0,0,"proceso OK"
51905887,14,4,0,0,8000000000,0,0,"proceso OK"
80233026,14,4,0,0,6000000000,0,0,"proceso OK"
79783126,14,4,0,0,675000000,0,0,"proceso OK"
52800168,14,4,0,0,675000000,0,0,"proceso OK"
1018437239,14,4,0,0,480000000,0,0,"proceso OK"
52121922,14,4,0,0,600000000,0,0,"proceso OK"
1013585602,14,4,0,0,2038000000,0,0,"proceso OK"
80034193,14,4,0,0,3222000000,0,0,"proceso OK"
80075509,14,4,0,0,5624000000,0,0,"proceso OK"
1073233615,14,4,0,0,3176000000,0,0,"proceso OK"
24713041,14,4,0,0,9000000000,0,0,"proceso OK"
1103106154,14,4,0,0,720000000,0,0,"proceso OK"
80152348,14,4,0,0,675000000,0,0,"proceso OK"
51804331,14,4,0,0,480000000,0,0,"proceso OK"
1030523041,14,4,0,0,480000000,0,0,"proceso OK"
51735996,14,4,0,0,25000000000,0,0,"proceso OK"
52021389,14,4,0,0,20000000000,0,0,"proceso OK"
52090193,14,4,0,0,28000000000,0,0,"proceso OK"
52690935,14,4,0,0,675000000,0,0,"proceso OK"
65753056,14,4,0,0,799000000,0,0,"proceso OK"
11203895,14,4,0,0,2268000000,0,0,"proceso OK"
41939281,14,4,0,0,1846000000,0,0,"proceso OK"
36066439,14,4,0,0,578000000,0,0,"proceso OK"
45451376,14,4,0,0,3496000000,0,0,"proceso OK"
22461132,14,4,0,0,6000000000,0,0,"proceso OK"
78753455,14,4,0,0,225000000,0,0,"proceso OK"
45522074,14,4,0,0,120000000,0,0,"proceso OK"
55308533,14,4,0,0,2590000000,0,0,"proceso OK"
1140839286,14,4,0,0,2298000000,0,0,"proceso OK"
1129578992,14,4,0,0,180000000,0,0,"proceso OK"
56088989,14,4,0,0,2137000000,0,0,"proceso OK"
4615873,14,4,0,0,450000000,0,0,"proceso OK"
10298776,14,4,0,0,400000000,0,0,"proceso OK"
29123247,14,4,0,0,3072000000,0,0,"proceso OK"
66848086,14,4,0,0,2326000000,0,0,"proceso OK"
94417153,14,4,0,0,4596000000,0,0,"proceso OK"
31173846,14,4,0,0,2300000000,0,0,"proceso OK"
66879702,14,4,0,0,450000000,0,0,"proceso OK"
66926721,14,4,0,0,14000000000,0,0,"proceso OK"
91299141,14,4,0,0,3567000000,0,0,"proceso OK"
1098673498,14,4,0,0,180000000,0,0,"proceso OK"
63483497,14,4,0,0,996000000,0,0,"proceso OK"
63531231,14,4,0,0,5000000000,0,0,"proceso OK"
1090414706,14,4,0,0,4000000000,0,0,"proceso OK"
