CEDULA,PERIODO,VARIABLE,SUB_VARIABLE,PRODUCTO,"OBJETIVO ",RESULTADO,CUMPLIMIENTO,OBSERVACIONES
43274889,10,1,0,0,1,1,1,"=> ya existe datos para el usuario 43274889 en el periodo 10 para la variable 1"
43274889,10,2,0,0,1,1,1,"=> ya existe datos para el usuario 43274889 en el periodo 10 para la variable 2"
43274889,10,3,0,0,1,1,1,"=> ya existe datos para el usuario 43274889 en el periodo 10 para la variable 3"
43274889,10,4,0,0,1,1,1,"=> ya existe datos para el usuario 43274889 en el periodo 10 para la variable 4"
43274889,10,5,0,0,1,1,1,"=> ya existe datos para el usuario 43274889 en el periodo 10 para la variable 5"
43274889,10,6,61,0,1,1,1,"proceso OK"
43274889,10,6,62,621,1,1,1,"=> ya existe datos para el usuario 43274889 en el periodo 10 para la variable 6 subvariable 62 producto 621"
43274889,10,6,62,622,1,1,1,"=> ya existe datos para el usuario 43274889 en el periodo 10 para la variable 6 subvariable 62 producto 622"
39564319,10,1,0,0,1,1,1,"=> ya existe datos para el usuario 39564319 en el periodo 10 para la variable 1"
39564319,10,2,0,0,1,1,1,"=> ya existe datos para el usuario 39564319 en el periodo 10 para la variable 2"
39564319,10,3,0,0,1,1,1,"=> ya existe datos para el usuario 39564319 en el periodo 10 para la variable 3"
39564319,10,4,0,0,1,1,1,"=> ya existe datos para el usuario 39564319 en el periodo 10 para la variable 4"
39564319,10,5,0,0,1,1,1,"=> ya existe datos para el usuario 39564319 en el periodo 10 para la variable 5"
39564319,10,6,61,0,1,1,1,"=> ya existe datos para el usuario 39564319 en el periodo 10 para la variable 6 subvariable 61 producto 0"
39564319,10,6,62,621,1,1,1,"=> ya existe datos para el usuario 39564319 en el periodo 10 para la variable 6 subvariable 62 producto 621"
39564319,10,6,62,622,1,1,1,"=> ya existe datos para el usuario 39564319 en el periodo 10 para la variable 6 subvariable 62 producto 622"
