CEDULA,PERIODO,VARIABLE,SUB_VARIABLE,PRODUCTO,"OBJETIVO ",RESULTADO,CUMPLIMIENTO,OBSERVACIONES
43274889,10,1,0,0,50,0,0,"proceso OK"
43274889,10,2,0,0,60,0,0,"proceso OK"
43274889,10,3,0,0,70,70,0,"proceso OK"
43274889,10,4,0,0,80,60,0,"proceso OK"
43274889,10,5,0,0,90,50,0,"proceso OK"
43274889,10,6,61,0,0,0,60,"proceso OK"
43274889,10,6,62,621,0,0,61,"proceso OK"
43274889,10,6,62,622,0,0,62,"proceso OK"
39564319,10,1,0,0,100,100,0,"proceso OK"
39564319,10,2,0,0,101,101,0,"proceso OK"
39564319,10,3,0,0,102,102,0,"proceso OK"
39564319,10,4,0,0,103,103,0,"proceso OK"
39564319,10,5,0,0,104,104,0,"proceso OK"
39564319,10,6,61,0,0,0,70,"proceso OK"
39564319,10,6,62,621,0,0,71,"proceso OK"
39564319,10,6,62,622,0,0,72,"proceso OK"
